Lab5
…
milkSummary1997 <- milk1997 %>%
  select(state, milk_million) %>%
  group_by(state) %>%
  summarise(Average = mean(milk_million), Median = median(milk_million), Maximum = max(milk_million), Minimum = min(milk_million)) %>%
  as_tibble

milkSummary1997

## # A tibble: 50 x 5
##    state       Average Median Maximum Minimum
##    <fct>         <dbl>  <dbl>   <dbl>   <dbl>
##  1 Alabama         418    418     418     418
##  2 Alaska           15     15      15      15
##  3 Arizona        2664   2664    2664    2664
##  4 Arkansas        635    635     635     635
##  5 California    27582  27582   27582   27582
##  6 Colorado       1679   1679    1679    1679
##  7 Connecticut     509    509     509     509
##  8 Delaware        148    148     148     148
##  9 Florida        2476   2476    2476    2476
## 10 Georgia        1488   1488    1488    1488
## #  with 40 more rows
…
milkcor98 <- milk %>% select(state, year, milk_million) %>% group_by(state) %>%
  summarise(Average = mean(milk_million), Median = median(milk_million), Max = max(milk_million), Min = min(milk_million)) %>%
  as_tibble()
milkcor98

## # A tibble: 50 x 5
##    state       Average Median   Max   Min
##    <fct>         <dbl>  <dbl> <dbl> <dbl>
##  1 Alabama       433.    501    820    89
##  2 Alaska         14.1    14     35     3
##  3 Arizona      2436.   2005   5010   585
##  4 Arkansas      543.    702    848    79
##  5 California  25410.  24079  42339  9457
##  6 Colorado     1796.   1502.  4189   835
##  7 Connecticut   512.    525    661   353
##  8 Delaware      127.    130    159    90
##  9 Florida      2222.   2231   2623  1641
## 10 Georgia      1411.   1402   1840  1160
## #  with 40 more rows
…
Average <- milk99 %>% group_by(state) %>% summarise(AVERAGE = mean(milk_million))
Median <- milk99 %>% group_by(state) %>% summarise(MEDIAN = median(milk_million))
Max <- milk99 %>% group_by(state) %>% arrange(desc(milk_million))
Min <- milk99 %>% group_by(state) %>% arrange(milk_million)

Average

## # A tibble: 50 x 2
##    state       AVERAGE
##    <fct>         <dbl>
##  1 Alabama         376
##  2 Alaska           14
##  3 Arizona        2931
##  4 Arkansas        520
##  5 California    30444
##  6 Colorado       1728
##  7 Connecticut     520
##  8 Delaware        145
##  9 Florida        2398
## 10 Georgia        1449
## #  with 40 more rows

Median

## # A tibble: 50 x 2
##    state       MEDIAN
##    <fct>        <dbl>
##  1 Alabama        376
##  2 Alaska          14
##  3 Arizona       2931
##  4 Arkansas       520
##  5 California   30444
##  6 Colorado      1728
##  7 Connecticut    520
##  8 Delaware       145
##  9 Florida       2398
## 10 Georgia       1449
## #  with 40 more rows

Max

## # A tibble: 50 x 5
## # Groups:   state [50]
##    region          state         year milk_produced milk_million
##    <fct>           <fct>        <dbl>         <dbl>        <dbl>
##  1 Pacific         California    1999   30444000000        30444
##  2 Lake States     Wisconsin     1999   23071000000        23071
##  3 Northeast       New York      1999   12082000000        12082
##  4 Northeast       Pennsylvania  1999   10931000000        10931
##  5 Lake States     Minnesota     1999    9478000000         9478
##  6 Mountain        Idaho         1999    6453000000         6453
##  7 Southern Plains Texas         1999    5620000000         5620
##  8 Pacific         Washington    1999    5535000000         5535
##  9 Lake States     Michigan      1999    5455000000         5455
## 10 Mountain        New Mexico    1999    4724000000         4724
## #  with 40 more rows

Min

## # A tibble: 50 x 5
## # Groups:   state [50]
##    region      state           year milk_produced milk_million
##    <fct>       <fct>          <dbl>         <dbl>        <dbl>
##  1 Pacific     Alaska          1999      14000000           14
##  2 Northeast   Rhode Island    1999      31000000           31
##  3 Mountain    Wyoming         1999      80000000           80
##  4 Pacific     Hawaii          1999     120000000          120
##  5 Northeast   Delaware        1999     145000000          145
##  6 Appalachian West Virginia   1999     275000000          275
##  7 Northeast   New Jersey      1999     280000000          280
##  8 Mountain    Montana         1999     303000000          303
##  9 Northeast   New Hampshire   1999     321000000          321
## 10 Southeast   South Carolina  1999     369000000          369
## #  with 40 more rows
…
milkTotal %>% arrange(desc(count_million))

## # A tibble: 48 x 3
##     year        count count_million
##    <dbl>        <dbl>         <dbl>
##  1  2017 215466000000        215466
##  2  2016 212406000000        212406
##  3  2015 208597000000        208597
##  4  2014 206056000000        206056
##  5  2013 201230000000        201230
##  6  2012 200642000000        200642
##  7  2011 196256000000        196256
##  8  2010 192876000000        192876
##  9  2008 189979000000        189979
## 10  2009 189202000000        189202
## #  with 38 more rows
…
milkTotal %>% arrange(count_million)

## # A tibble: 48 x 3
##     year        count count_million
##    <dbl>        <dbl>         <dbl>
##  1  1975 115398000000        115398
##  2  1973 115491000000        115491
##  3  1974 115586000000        115586
##  4  1970 117007000000        117007
##  5  1971 118566000000        118566
##  6  1972 120025000000        120025
##  7  1976 120180000000        120180
##  8  1978 121461000000        121461
##  9  1977 122654000000        122654
## 10  1979 123351000000        123351
## #  with 38 more rows

Findings: The year when the least amount of milk was prduced in the United States was 1975.

In 2017, report the 5 states that produced the most milk. (TEAM)

milkMost <- milk %>%
  filter(year == 2017) %>%
  group_by(state) %>%
  summarise(count = sum(milk_produced), countMil = sum(milk_million)) %>%
  arrange(desc(countMil))

milkMost

## # A tibble: 50 x 3
##    state              count countMil
##    <fct>              <dbl>    <dbl>
##  1 California   39798000000    39798
##  2 Wisconsin    30320000000    30320
##  3 New York     14912000000    14912
##  4 Idaho        14627000000    14627
##  5 Texas        12054000000    12054
##  6 Michigan     11231000000    11231
##  7 Pennsylvania 10938000000    10938
##  8 Minnesota     9864000000     9864
##  9 New Mexico    8212000000     8212
## 10 Washington    6526000000     6526
## #  with 40 more rows

Findings: The 5 states that produced the Most milk in 2017 were California, Wisconsin, New York, Idaho, and Texas

In 2017, report the 5 states that produced the least milk. (TEAM)

milkLeast <- milk %>%
  filter(year == 2017) %>%
  group_by(state) %>%
  summarise(count = sum(milk_produced), countMil = sum(milk_million)) %>%
  arrange(countMil)

milkLeast

## # A tibble: 50 x 3
##    state             count countMil
##    <fct>             <dbl>    <dbl>
##  1 Alaska          3000000        3
##  2 Rhode Island   13000000       13
##  3 Hawaii         39000000       39
##  4 Arkansas       79000000       79
##  5 Alabama        89000000       89
##  6 Delaware       93000000       93
##  7 New Jersey    119000000      119
##  8 West Virginia 127000000      127
##  9 Mississippi   137000000      137
## 10 Wyoming       138000000      138
## #  with 40 more rows
…
