Lab6
…
(DENflights)

## # A tibble: 446,399 x 27
##     YEAR MONTH DAY_OF_MONTH CARRIER TAIL_NUM ORIGIN DEST  CRS_DEP_TIME
##    <dbl> <dbl>        <dbl> <chr>   <chr>    <chr>  <chr> <chr>       
##  1  2017     1            9 AA      N578AA   DFW    DEN   0910        
##  2  2017     1           10 AA      N544AA   DFW    DEN   0910        
##  3  2017     1           11 AA      N163AA   DFW    DEN   0910        
##  4  2017     1           12 AA      N542AA   DFW    DEN   0910        
##  5  2017     1           13 AA      N578AA   DFW    DEN   0910        
##  6  2017     1           14 AA      N545AA   DFW    DEN   0910        
##  7  2017     1           15 AA      N177AA   DFW    DEN   0910        
##  8  2017     1           16 AA      N152AA   DFW    DEN   0910        
##  9  2017     1           17 AA      N509AA   DFW    DEN   0910        
## 10  2017     1           18 AA      N581AA   DFW    DEN   0910        
## #  with 446,389 more rows, and 19 more variables: DEP_TIME <chr>,
## #   DEP_DELAY <dbl>, TAXI_OUT <dbl>, TAXI_IN <dbl>, CRS_ARR_TIME <chr>,
## #   ARR_TIME <chr>, ARR_DELAY <dbl>, CANCELLED <dbl>,
## #   CANCELLATION_CODE <chr>, DIVERTED <dbl>, ACTUAL_ELAPSED_TIME <dbl>,
## #   AIR_TIME <dbl>, DISTANCE <dbl>, CARRIER_DELAY <dbl>,
## #   WEATHER_DELAY <dbl>, NAS_DELAY <dbl>, SECURITY_DELAY <dbl>,
## #   LATE_AIRCRAFT_DELAY <dbl>, ARR_DELAY_LOG <lgl>
…
